^D:\ONEDRIVE - 東海大學\文件\東海大學_課程\推甄程式\C\S05351011_五子棋\S05351011_五子棋\S05351011_五子棋\STDAFX.CPP
D:\ONEDRIVE - 東海大學\文件\東海大學_課程\推甄程式\C\S05351011_五子棋\S05351011_五子棋\S05351011_五子棋\DEBUG\S05351011_五子棋.PCH
D:\ONEDRIVE - 東海大學\文件\東海大學_課程\推甄程式\C\S05351011_五子棋\S05351011_五子棋\S05351011_五子棋\DEBUG\VC141.PDB
D:\ONEDRIVE - 東海大學\文件\東海大學_課程\推甄程式\C\S05351011_五子棋\S05351011_五子棋\S05351011_五子棋\DEBUG\VC141.IDB
D:\ONEDRIVE - 東海大學\文件\東海大學_課程\推甄程式\C\S05351011_五子棋\S05351011_五子棋\S05351011_五子棋\DEBUG\STDAFX.OBJ
^D:\ONEDRIVE - 東海大學\文件\東海大學_課程\推甄程式\C\S05351011_五子棋\S05351011_五子棋\S05351011_五子棋\S05351011_五子棋.CPP
D:\ONEDRIVE - 東海大學\文件\東海大學_課程\推甄程式\C\S05351011_五子棋\S05351011_五子棋\S05351011_五子棋\DEBUG\VC141.PDB
D:\ONEDRIVE - 東海大學\文件\東海大學_課程\推甄程式\C\S05351011_五子棋\S05351011_五子棋\S05351011_五子棋\DEBUG\VC141.IDB
D:\ONEDRIVE - 東海大學\文件\東海大學_課程\推甄程式\C\S05351011_五子棋\S05351011_五子棋\S05351011_五子棋\DEBUG\S05351011_五子棋.OBJ
