^C:\USERS\USER\DOCUMENTS\VISUAL STUDIO 2010\PROJECTS\S05351011_五子棋\S05351011_五子棋\STDAFX.CPP
/c /ZI /nologo /W3 /WX- /Od /Oy- /D WIN32 /D _DEBUG /D _CONSOLE /D _UNICODE /D UNICODE /Gm /EHsc /RTC1 /MDd /GS /fp:precise /Zc:wchar_t /Zc:forScope /Yc"StdAfx.h" /Fp"Debug\S05351011_五子棋.pch" /Fo"Debug\\" /Fd"Debug\vc100.pdb" /Gd /TP /analyze- /errorReport:prompt C:\USERS\USER\DOCUMENTS\VISUAL STUDIO 2010\PROJECTS\S05351011_五子棋\S05351011_五子棋\STDAFX.CPP
^C:\USERS\USER\DOCUMENTS\VISUAL STUDIO 2010\PROJECTS\S05351011_五子棋\S05351011_五子棋\S05351011_五子棋.CPP
/c /ZI /nologo /W3 /WX- /Od /Oy- /D WIN32 /D _DEBUG /D _CONSOLE /D _UNICODE /D UNICODE /Gm /EHsc /RTC1 /MDd /GS /fp:precise /Zc:wchar_t /Zc:forScope /Yu"StdAfx.h" /Fp"Debug\S05351011_五子棋.pch" /Fo"Debug\\" /Fd"Debug\vc100.pdb" /Gd /TP /analyze- /errorReport:prompt C:\USERS\USER\DOCUMENTS\VISUAL STUDIO 2010\PROJECTS\S05351011_五子棋\S05351011_五子棋\S05351011_五子棋.CPP
