^C:\USERS\USER\DOCUMENTS\VISUAL STUDIO 2010\PROJECTS\S05351011_五子棋\S05351011_五子棋\DEBUG\S05351011_五子棋.EXE.EMBED.MANIFEST.RES|C:\USERS\USER\DOCUMENTS\VISUAL STUDIO 2010\PROJECTS\S05351011_五子棋\S05351011_五子棋\DEBUG\S05351011_五子棋.OBJ|C:\USERS\USER\DOCUMENTS\VISUAL STUDIO 2010\PROJECTS\S05351011_五子棋\S05351011_五子棋\DEBUG\STDAFX.OBJ
C:\USERS\USER\DOCUMENTS\VISUAL STUDIO 2010\PROJECTS\S05351011_五子棋\DEBUG\S05351011_五子棋.ILK
C:\USERS\USER\DOCUMENTS\VISUAL STUDIO 2010\PROJECTS\S05351011_五子棋\DEBUG\S05351011_五子棋.EXE
C:\USERS\USER\DOCUMENTS\VISUAL STUDIO 2010\PROJECTS\S05351011_五子棋\S05351011_五子棋\DEBUG\S05351011_五子棋.EXE.INTERMEDIATE.MANIFEST
C:\USERS\USER\DOCUMENTS\VISUAL STUDIO 2010\PROJECTS\S05351011_五子棋\DEBUG\S05351011_五子棋.PDB
