^C:\USERS\USER\DOCUMENTS\VISUAL STUDIO 2010\PROJECTS\S05351011_凱撒密碼(CAESAR CIPHER)明文和密文\S05351011_凱撒密碼(CAESAR CIPHER)明文和密文\DEBUG\S05351011_凱撒密碼(CAESAR CIPHER)明文和密文_MANIFEST.RC
C:\USERS\USER\DOCUMENTS\VISUAL STUDIO 2010\PROJECTS\S05351011_凱撒密碼(CAESAR CIPHER)明文和密文\S05351011_凱撒密碼(CAESAR CIPHER)明文和密文\DEBUG\S05351011_凱撒密碼(CAESAR CIPHER)明文和密文.EXE.EMBED.MANIFEST
^C:\USERS\USER\DOWNLOADS\S05351011_凱撒密碼(CAESAR CIPHER)明文和密文\S05351011_凱撒密碼(CAESAR CIPHER)明文和密文\S05351011_凱撒密碼(CAESAR CIPHER)明文和密文\DEBUG\S05351011_凱撒密碼(CAESAR CIPHER)明文和密文_MANIFEST.RC
C:\USERS\USER\DOWNLOADS\S05351011_凱撒密碼(CAESAR CIPHER)明文和密文\S05351011_凱撒密碼(CAESAR CIPHER)明文和密文\S05351011_凱撒密碼(CAESAR CIPHER)明文和密文\DEBUG\S05351011_凱撒密碼(CAESAR CIPHER)明文和密文.EXE.EMBED.MANIFEST
